%YAML 1.1
%TAG !u! tag:unity3d.com,2011:
--- !u!1045 &1
EditorBuildSettings:
  m_ObjectHideFlags: 0
  serializedVersion: 2
  m_Scenes:
  - enabled: 1
    path: Assets/Scenes/Start_Screen.unity
    guid: 0764e8f6e9e554e42bff806a570ffd9a
  - enabled: 1
    path: Assets/Scenes/SampleScene.unity
    guid: 99c9720ab356a0642a771bea13969a05
  - enabled: 1
    path: Assets/Scenes/End_Screen.unity
    guid: a563f5903dc096049955133260dcc3d8
  m_configObjects: {}
